[
  {
    "name": "app",
    "url": "/",
    "type": "load",
    "src": "components/application/index"
  },
  {
    "name": "app.index",
    "url": "index",
    "type": "load",
    "src": "components/index-state/index"
  },
  {
    "name": "app.code-editor",
    "url": "code-editor",
    "type": "load",
    "src": "components/code-editor-state/index"
  },
  {
    "name": "app.blog",
    "url": "blog",
    "type": "load",
    "src": "components/blog/blog-state/index"
  },
  {
    "name": "app.blog.articles",
    "url": "/articles",
    "type": "load",
    "src": "components/blog/articles-state/index"
  },
  {
    "name": "app.blog.article",
    "url": "/articles/{alias}",
    "type": "load",
    "src": "components/blog/article-state/index"
  },
  {
    "name": "app.blog.create",
    "url": "/create",
    "type": "load",
    "src": "components/blog/create-state/index"
  },
  {
    "name": "app.profile",
    "url": "profile/{id:int}",
    "type": "load",
    "src": "components/profile/profile-state/index"
  },
  {
    "name": "app.register",
    "url": "register",
    "type": "load",
    "src": "components/register-state/index"
  },
  {
    "name": "app.blog.article.edit",
    "url": "/edit",
    "type": "load",
    "src": "components/blog/edit-state/index"
  },
  {
    "name": "app.login",
    "url": "login",
    "type": "load",
    "src": "components/login-state/index"
  },
  {
    "name": "app.users",
    "url": "users",
    "type": "load",
    "src": "components/users-state/index"
  },
  {
    "name": "app.about",
    "url": "about",
    "type": "load",
    "src": "components/about-state/index"
  }
]
