{
    "web": {
        "client_id": "10585074057-vei3b861bt2rtnugccb2c2nnkeg1jdp5.apps.googleusercontent.com",
        "project_id": "codeandpain",
        "auth_uri": "https://accounts.google.com/o/oauth2/auth",
        "token_uri": "https://accounts.google.com/o/oauth2/token",
        "auth_provider_x509_cert_url": "https://www.googleapis.com/oauth2/v1/certs",
        "client_secret": "3-pbaT03rf7IqlEqe_Er7rpM",
        "redirect_uris": [
            "http://localhost:3000/auth/google/callback"
        ],
        "javascript_origins": [
            "http://localhost:8088",
            "http://localhost:3000",
            "https://accounts.google.com"
        ]
    }
}
